Lab 2 - Rb Spectroscopy/Data/Triple Peak and Big Peak/TEK0002.CSV

Record Length,2.500000e+03,,   0.039600000000,  -0.14280,
Sample Interval,2.000000e-05,,   0.039620000000,  -0.14280,
Trigger Point,-1.980000000000e+03,,   0.039640000000,  -0.14320,
,,,   0.039660000000,  -0.14280,
,,,   0.039680000000,  -0.14280,
,,,   0.039700000000,  -0.14240,
Source,CH3,,   0.039720000000,  -0.14280,
Vertical Units,V,,   0.039740000000,  -0.14280,
Vertical Scale,1.000000e-02,,   0.039760000000,  -0.14280,
Vertical Offset,1.132000e-01,,   0.039780000000,  -0.14240,
Horizontal Units,s,,   0.039800000000,  -0.14280,
Horizontal Scale,5.000000e-03,,   0.039820000000,  -0.14240,
Pt Fmt,Y,,   0.039840000000,  -0.14280,
Yzero,0.000000e+00,,   0.039860000000,  -0.14280,
Probe Atten,1.000000e+00,,   0.039880000000,  -0.14240,
Model Number,TDS2004C,,   0.039900000000,  -0.14240,
Serial Number,C012605,,   0.039920000000,  -0.14280,
Firmware Version,FV:v24.18,,   0.039940000000,  -0.14240,
,,,0.039960000000,  -0.14280,
,,,0.039980000000,  -0.14240,
,,,0.040000000000,  -0.14240,
,,,0.040020000000,  -0.14240,
,,,0.040040000000,  -0.14240,
,,,0.040060000000,  -0.14240,
,,,0.040080000000,  -0.14240,
,,,0.040100000000,  -0.14240,
,,,0.040120000000,  -0.14200,
,,,0.040140000000,  -0.14200,
,,,0.040160000000,  -0.14240,
,,,0.040180000000,  -0.14240,
,,,0.040200000000,  -0.14240,
,,,0.040220000000,  -0.14200,
,,,0.040240000000,  -0.14200,
,,,0.040260000000,  -0.14200,
,,,0.040280000000,  -0.14200,
,,,0.040300000000,  -0.14200,
,,,0.040320000000,  -0.14200,
,,,0.040340000000,  -0.14200,
,,,0.040360000000,  -0.14200,
,,,0.040380000000,  -0.14200,
,,,0.040400000000,  -0.14200,
,,,0.040420000000,  -0.14160,
,,,0.040440000000,  -0.14160,
,,,0.040460000000,  -0.14200,
,,,0.040480000000,  -0.14160,
,,,0.040500000000,  -0.14160,
,,,0.040520000000,  -0.14160,
,,,0.040540000000,  -0.14120,
,,,0.040560000000,  -0.14160,
,,,0.040580000000,  -0.14160,
,,,0.040600000000,  -0.14160,
,,,0.040620000000,  -0.14120,
,,,0.040640000000,  -0.14120,
,,,0.040660000000,  -0.14120,
,,,0.040680000000,  -0.14160,
,,,0.040700000000,  -0.14120,
,,,0.040720000000,  -0.14080,
,,,0.040740000000,  -0.14080,
,,,0.040760000000,  -0.14080,
,,,0.040780000000,  -0.14080,
,,,0.040800000000,  -0.14080,
,,,0.040820000000,  -0.14080,
,,,0.040840000000,  -0.14080,
,,,0.040860000000,  -0.14080,
,,,0.040880000000,  -0.14080,
,,,0.040900000000,  -0.14080,
,,,0.040920000000,  -0.14080,
,,,0.040940000000,  -0.14040,
,,,0.040960000000,  -0.14040,
,,,0.040980000000,  -0.14040,
,,,0.041000000000,  -0.14040,
,,,0.041020000000,  -0.14040,
,,,0.041040000000,  -0.14040,
,,,0.041060000000,  -0.14000,
,,,0.041080000000,  -0.14040,
,,,0.041100000000,  -0.14040,
,,,0.041120000000,  -0.14040,
,,,0.041140000000,  -0.14000,
,,,0.041160000000,  -0.14000,
,,,0.041180000000,  -0.14000,
,,,0.041200000000,  -0.14000,
,,,0.041220000000,  -0.14000,
,,,0.041240000000,  -0.13960,
,,,0.041260000000,  -0.13960,
,,,0.041280000000,  -0.13960,
,,,0.041300000000,  -0.13960,
,,,0.041320000000,  -0.13960,
,,,0.041340000000,  -0.13960,
,,,0.041360000000,  -0.13920,
,,,0.041380000000,  -0.13920,
,,,0.041400000000,  -0.13920,
,,,0.041420000000,  -0.13920,
,,,0.041440000000,  -0.13920,
,,,0.041460000000,  -0.13880,
,,,0.041480000000,  -0.13880,
,,,0.041500000000,  -0.13880,
,,,0.041520000000,  -0.13880,
,,,0.041540000000,  -0.13880,
,,,0.041560000000,  -0.13840,
,,,0.041580000000,  -0.13840,
,,,0.041600000000,  -0.13840,
,,,0.041620000000,  -0.13840,
,,,0.041640000000,  -0.13840,
,,,0.041660000000,  -0.13840,
,,,0.041680000000,  -0.13800,
,,,0.041700000000,  -0.13800,
,,,0.041720000000,  -0.13800,
,,,0.041740000000,  -0.13800,
,,,0.041760000000,  -0.13800,
,,,0.041780000000,  -0.13800,
,,,0.041800000000,  -0.13760,
,,,0.041820000000,  -0.13760,
,,,0.041840000000,  -0.13760,
,,,0.041860000000,  -0.13760,
,,,0.041880000000,  -0.13760,
,,,0.041900000000,  -0.13760,
,,,0.041920000000,  -0.13760,
,,,0.041940000000,  -0.13720,
,,,0.041960000000,  -0.13720,
,,,0.041980000000,  -0.13720,
,,,0.042000000000,  -0.13680,
,,,0.042020000000,  -0.13720,
,,,0.042040000000,  -0.13720,
,,,0.042060000000,  -0.13720,
,,,0.042080000000,  -0.13720,
,,,0.042100000000,  -0.13680,
,,,0.042120000000,  -0.13680,
,,,0.042140000000,  -0.13720,
,,,0.042160000000,  -0.13680,
,,,0.042180000000,  -0.13680,
,,,0.042200000000,  -0.13680,
,,,0.042220000000,  -0.13680,
,,,0.042240000000,  -0.13680,
,,,0.042260000000,  -0.13680,
,,,0.042280000000,  -0.13680,
,,,0.042300000000,  -0.13640,
,,,0.042320000000,  -0.13640,
,,,0.042340000000,  -0.13640,
,,,0.042360000000,  -0.13640,
,,,0.042380000000,  -0.13640,
,,,0.042400000000,  -0.13600,
,,,0.042420000000,  -0.13600,
,,,0.042440000000,  -0.13600,
,,,0.042460000000,  -0.13600,
,,,0.042480000000,  -0.13600,
,,,0.042500000000,  -0.13560,
,,,0.042520000000,  -0.13560,
,,,0.042540000000,  -0.13560,
,,,0.042560000000,  -0.13560,
,,,0.042580000000,  -0.13560,
,,,0.042600000000,  -0.13520,
,,,0.042620000000,  -0.13520,
,,,0.042640000000,  -0.13480,
,,,0.042660000000,  -0.13480,
,,,0.042680000000,  -0.13520,
,,,0.042700000000,  -0.13520,
,,,0.042720000000,  -0.13440,
,,,0.042740000000,  -0.13440,
,,,0.042760000000,  -0.13440,
,,,0.042780000000,  -0.13440,
,,,0.042800000000,  -0.13440,
,,,0.042820000000,  -0.13400,
,,,0.042840000000,  -0.13400,
,,,0.042860000000,  -0.13360,
,,,0.042880000000,  -0.13400,
,,,0.042900000000,  -0.13360,
,,,0.042920000000,  -0.13360,
,,,0.042940000000,  -0.13320,
,,,0.042960000000,  -0.13320,
,,,0.042980000000,  -0.13320,
,,,0.043000000000,  -0.13320,
,,,0.043020000000,  -0.13320,
,,,0.043040000000,  -0.13280,
,,,0.043060000000,  -0.13280,
,,,0.043080000000,  -0.13280,
,,,0.043100000000,  -0.13280,
,,,0.043120000000,  -0.13280,
,,,0.043140000000,  -0.13240,
,,,0.043160000000,  -0.13200,
,,,0.043180000000,  -0.13200,
,,,0.043200000000,  -0.13240,
,,,0.043220000000,  -0.13200,
,,,0.043240000000,  -0.13200,
,,,0.043260000000,  -0.13160,
,,,0.043280000000,  -0.13120,
,,,0.043300000000,  -0.13160,
,,,0.043320000000,  -0.13160,
,,,0.043340000000,  -0.13120,
,,,0.043360000000,  -0.13080,
,,,0.043380000000,  -0.13080,
,,,0.043400000000,  -0.13080,
,,,0.043420000000,  -0.13080,
,,,0.043440000000,  -0.13040,
,,,0.043460000000,  -0.13000,
,,,0.043480000000,  -0.12960,
,,,0.043500000000,  -0.12960,
,,,0.043520000000,  -0.12960,
,,,0.043540000000,  -0.12920,
,,,0.043560000000,  -0.12880,
,,,0.043580000000,  -0.12840,
,,,0.043600000000,  -0.12840,
,,,0.043620000000,  -0.12800,
,,,0.043640000000,  -0.12800,
,,,0.043660000000,  -0.12720,
,,,0.043680000000,  -0.12680,
,,,0.043700000000,  -0.12640,
,,,0.043720000000,  -0.12680,
,,,0.043740000000,  -0.12680,
,,,0.043760000000,  -0.12640,
,,,0.043780000000,  -0.12600,
,,,0.043800000000,  -0.12600,
,,,0.043820000000,  -0.12600,
,,,0.043840000000,  -0.12600,
,,,0.043860000000,  -0.12600,
,,,0.043880000000,  -0.12560,
,,,0.043900000000,  -0.12560,
,,,0.043920000000,  -0.12600,
,,,0.043940000000,  -0.12600,
,,,0.043960000000,  -0.12600,
,,,0.043980000000,  -0.12600,
,,,0.044000000000,  -0.12600,
,,,0.044020000000,  -0.12640,
,,,0.044040000000,  -0.12640,
,,,0.044060000000,  -0.12680,
,,,0.044080000000,  -0.12680,
,,,0.044100000000,  -0.12680,
,,,0.044120000000,  -0.12680,
,,,0.044140000000,  -0.12680,
,,,0.044160000000,  -0.12680,
,,,0.044180000000,  -0.12680,
,,,0.044200000000,  -0.12680,
,,,0.044220000000,  -0.12680,
,,,0.044240000000,  -0.12680,
,,,0.044260000000,  -0.12680,
,,,0.044280000000,  -0.12680,
,,,0.044300000000,  -0.12680,
,,,0.044320000000,  -0.12680,
,,,0.044340000000,  -0.12680,
,,,0.044360000000,  -0.12680,
,,,0.044380000000,  -0.12680,
,,,0.044400000000,  -0.12640,
,,,0.044420000000,  -0.12600,
,,,0.044440000000,  -0.12640,
,,,0.044460000000,  -0.12640,
,,,0.044480000000,  -0.12600,
,,,0.044500000000,  -0.12560,
,,,0.044520000000,  -0.12560,
,,,0.044540000000,  -0.12520,
,,,0.044560000000,  -0.12520,
,,,0.044580000000,  -0.12520,
,,,0.044600000000,  -0.12480,
,,,0.044620000000,  -0.12440,
,,,0.044640000000,  -0.12400,
,,,0.044660000000,  -0.12400,
,,,0.044680000000,  -0.12400,
,,,0.044700000000,  -0.12360,
,,,0.044720000000,  -0.12320,
,,,0.044740000000,  -0.12280,
,,,0.044760000000,  -0.12240,
,,,0.044780000000,  -0.12240,
,,,0.044800000000,  -0.12200,
,,,0.044820000000,  -0.12160,
,,,0.044840000000,  -0.12120,
,,,0.044860000000,  -0.12120,
,,,0.044880000000,  -0.12160,
,,,0.044900000000,  -0.12080,
,,,0.044920000000,  -0.12040,
,,,0.044940000000,  -0.12040,
,,,0.044960000000,  -0.12040,
,,,0.044980000000,  -0.12040,
,,,0.045000000000,  -0.12080,
,,,0.045020000000,  -0.12040,
,,,0.045040000000,  -0.12040,
,,,0.045060000000,  -0.12040,
,,,0.045080000000,  -0.12080,
,,,0.045100000000,  -0.12120,
,,,0.045120000000,  -0.12120,
,,,0.045140000000,  -0.12160,
,,,0.045160000000,  -0.12200,
,,,0.045180000000,  -0.12240,
,,,0.045200000000,  -0.12240,
,,,0.045220000000,  -0.12280,
,,,0.045240000000,  -0.12280,
,,,0.045260000000,  -0.12320,
,,,0.045280000000,  -0.12360,
,,,0.045300000000,  -0.12400,
,,,0.045320000000,  -0.12400,
,,,0.045340000000,  -0.12440,
,,,0.045360000000,  -0.12440,
,,,0.045380000000,  -0.12480,
,,,0.045400000000,  -0.12480,
,,,0.045420000000,  -0.12520,
,,,0.045440000000,  -0.12560,
,,,0.045460000000,  -0.12560,
,,,0.045480000000,  -0.12560,
,,,0.045500000000,  -0.12640,
,,,0.045520000000,  -0.12600,
,,,0.045540000000,  -0.12640,
,,,0.045560000000,  -0.12640,
,,,0.045580000000,  -0.12680,
,,,0.045600000000,  -0.12680,
,,,0.045620000000,  -0.12720,
,,,0.045640000000,  -0.12720,
,,,0.045660000000,  -0.12720,
,,,0.045680000000,  -0.12720,
,,,0.045700000000,  -0.12760,
,,,0.045720000000,  -0.12760,
,,,0.045740000000,  -0.12760,
,,,0.045760000000,  -0.12760,
,,,0.045780000000,  -0.12760,
,,,0.045800000000,  -0.12800,
,,,0.045820000000,  -0.12800,
,,,0.045840000000,  -0.12800,
,,,0.045860000000,  -0.12800,
,,,0.045880000000,  -0.12800,
,,,0.045900000000,  -0.12840,
,,,0.045920000000,  -0.12840,
,,,0.045940000000,  -0.12880,
,,,0.045960000000,  -0.12840,
,,,0.045980000000,  -0.12840,
,,,0.046000000000,  -0.12840,
,,,0.046020000000,  -0.12880,
,,,0.046040000000,  -0.12880,
,,,0.046060000000,  -0.12880,
,,,0.046080000000,  -0.12880,
,,,0.046100000000,  -0.12880,
,,,0.046120000000,  -0.12920,
,,,0.046140000000,  -0.12920,
,,,0.046160000000,  -0.12920,
,,,0.046180000000,  -0.12920,
,,,0.046200000000,  -0.12920,
,,,0.046220000000,  -0.12960,
,,,0.046240000000,  -0.12960,
,,,0.046260000000,  -0.12960,
,,,0.046280000000,  -0.12920,
,,,0.046300000000,  -0.12960,
,,,0.046320000000,  -0.12960,
,,,0.046340000000,  -0.12960,
,,,0.046360000000,  -0.12960,
,,,0.046380000000,  -0.12960,
,,,0.046400000000,  -0.12960,
,,,0.046420000000,  -0.12960,
,,,0.046440000000,  -0.12960,
,,,0.046460000000,  -0.12960,
,,,0.046480000000,  -0.12960,
,,,0.046500000000,  -0.12960,
,,,0.046520000000,  -0.12960,
,,,0.046540000000,  -0.12960,
,,,0.046560000000,  -0.12960,
,,,0.046580000000,  -0.12960,
,,,0.046600000000,  -0.12920,
,,,0.046620000000,  -0.12920,
,,,0.046640000000,  -0.12920,
,,,0.046660000000,  -0.12960,
,,,0.046680000000,  -0.12920,
,,,0.046700000000,  -0.12920,
,,,0.046720000000,  -0.12880,
,,,0.046740000000,  -0.12840,
,,,0.046760000000,  -0.12880,
,,,0.046780000000,  -0.12880,
,,,0.046800000000,  -0.12880,
,,,0.046820000000,  -0.12800,
,,,0.046840000000,  -0.12800,
,,,0.046860000000,  -0.12800,
,,,0.046880000000,  -0.12800,
,,,0.046900000000,  -0.12760,
,,,0.046920000000,  -0.12760,
,,,0.046940000000,  -0.12760,
,,,0.046960000000,  -0.12760,
,,,0.046980000000,  -0.12760,
,,,0.047000000000,  -0.12760,
,,,0.047020000000,  -0.12760,
,,,0.047040000000,  -0.12760,
,,,0.047060000000,  -0.12800,
,,,0.047080000000,  -0.12800,
,,,0.047100000000,  -0.12800,
,,,0.047120000000,  -0.12840,
,,,0.047140000000,  -0.12840,
,,,0.047160000000,  -0.12880,
,,,0.047180000000,  -0.12880,
,,,0.047200000000,  -0.12880,
,,,0.047220000000,  -0.12920,
,,,0.047240000000,  -0.12880,
,,,0.047260000000,  -0.12960,
,,,0.047280000000,  -0.13000,
,,,0.047300000000,  -0.13000,
,,,0.047320000000,  -0.13000,
,,,0.047340000000,  -0.13040,
,,,0.047360000000,  -0.13040,
,,,0.047380000000,  -0.13040,
,,,0.047400000000,  -0.13080,
,,,0.047420000000,  -0.13080,
,,,0.047440000000,  -0.13080,
,,,0.047460000000,  -0.13080,
,,,0.047480000000,  -0.13120,
,,,0.047500000000,  -0.13120,
,,,0.047520000000,  -0.13160,
,,,0.047540000000,  -0.13120,
,,,0.047560000000,  -0.13120,
,,,0.047580000000,  -0.13160,
,,,0.047600000000,  -0.13160,
,,,0.047620000000,  -0.13200,
,,,0.047640000000,  -0.13160,
,,,0.047660000000,  -0.13160,
,,,0.047680000000,  -0.13200,
,,,0.047700000000,  -0.13200,
,,,0.047720000000,  -0.13200,
,,,0.047740000000,  -0.13200,
,,,0.047760000000,  -0.13200,
,,,0.047780000000,  -0.13200,
,,,0.047800000000,  -0.13240,
,,,0.047820000000,  -0.13240,
,,,0.047840000000,  -0.13240,
,,,0.047860000000,  -0.13240,
,,,0.047880000000,  -0.13240,
,,,0.047900000000,  -0.13280,
,,,0.047920000000,  -0.13240,
,,,0.047940000000,  -0.13280,
,,,0.047960000000,  -0.13240,
,,,0.047980000000,  -0.13280,
,,,0.048000000000,  -0.13280,
,,,0.048020000000,  -0.13280,
,,,0.048040000000,  -0.13280,
,,,0.048060000000,  -0.13280,
,,,0.048080000000,  -0.13280,
,,,0.048100000000,  -0.13320,
,,,0.048120000000,  -0.13320,
,,,0.048140000000,  -0.13320,
,,,0.048160000000,  -0.13320,
,,,0.048180000000,  -0.13320,
,,,0.048200000000,  -0.13320,
,,,0.048220000000,  -0.13320,
,,,0.048240000000,  -0.13360,
,,,0.048260000000,  -0.13360,
,,,0.048280000000,  -0.13320,
,,,0.048300000000,  -0.13360,
,,,0.048320000000,  -0.13360,
,,,0.048340000000,  -0.13360,
,,,0.048360000000,  -0.13360,
,,,0.048380000000,  -0.13360,
,,,0.048400000000,  -0.13360,
,,,0.048420000000,  -0.13360,
,,,0.048440000000,  -0.13400,
,,,0.048460000000,  -0.13400,
,,,0.048480000000,  -0.13400,
,,,0.048500000000,  -0.13360,
,,,0.048520000000,  -0.13400,
,,,0.048540000000,  -0.13400,
,,,0.048560000000,  -0.13440,
,,,0.048580000000,  -0.13400,
,,,0.048600000000,  -0.13400,
,,,0.048620000000,  -0.13400,
,,,0.048640000000,  -0.13440,
,,,0.048660000000,  -0.13440,
,,,0.048680000000,  -0.13440,
,,,0.048700000000,  -0.13440,
,,,0.048720000000,  -0.13400,
,,,0.048740000000,  -0.13440,
,,,0.048760000000,  -0.13480,
,,,0.048780000000,  -0.13480,
,,,0.048800000000,  -0.13440,
,,,0.048820000000,  -0.13440,
,,,0.048840000000,  -0.13440,
,,,0.048860000000,  -0.13480,
,,,0.048880000000,  -0.13480,
,,,0.048900000000,  -0.13480,
,,,0.048920000000,  -0.13480,
,,,0.048940000000,  -0.13480,
,,,0.048960000000,  -0.13480,
,,,0.048980000000,  -0.13480,
,,,0.049000000000,  -0.13480,
,,,0.049020000000,  -0.13480,
,,,0.049040000000,  -0.13480,
,,,0.049060000000,  -0.13520,
,,,0.049080000000,  -0.13520,
,,,0.049100000000,  -0.13520,
,,,0.049120000000,  -0.13520,
,,,0.049140000000,  -0.13480,
,,,0.049160000000,  -0.13520,
,,,0.049180000000,  -0.13560,
,,,0.049200000000,  -0.13520,
,,,0.049220000000,  -0.13520,
,,,0.049240000000,  -0.13520,
,,,0.049260000000,  -0.13560,
,,,0.049280000000,  -0.13560,
,,,0.049300000000,  -0.13560,
,,,0.049320000000,  -0.13520,
,,,0.049340000000,  -0.13560,
,,,0.049360000000,  -0.13560,
,,,0.049380000000,  -0.13560,
,,,0.049400000000,  -0.13560,
,,,0.049420000000,  -0.13560,
,,,0.049440000000,  -0.13560,
,,,0.049460000000,  -0.13600,
,,,0.049480000000,  -0.13600,
,,,0.049500000000,  -0.13560,
,,,0.049520000000,  -0.13600,
,,,0.049540000000,  -0.13560,
,,,0.049560000000,  -0.13600,
,,,0.049580000000,  -0.13600,
,,,0.049600000000,  -0.13600,
,,,0.049620000000,  -0.13640,
,,,0.049640000000,  -0.13600,
,,,0.049660000000,  -0.13640,
,,,0.049680000000,  -0.13640,
,,,0.049700000000,  -0.13640,
,,,0.049720000000,  -0.13640,
,,,0.049740000000,  -0.13640,
,,,0.049760000000,  -0.13640,
,,,0.049780000000,  -0.13600,
,,,0.049800000000,  -0.13680,
,,,0.049820000000,  -0.13640,
,,,0.049840000000,  -0.13640,
,,,0.049860000000,  -0.13640,
,,,0.049880000000,  -0.13640,
,,,0.049900000000,  -0.13680,
,,,0.049920000000,  -0.13680,
,,,0.049940000000,  -0.13680,
,,,0.049960000000,  -0.13680,
,,,0.049980000000,  -0.13680,
,,,0.050000000000,  -0.13680,
,,,0.050020000000,  -0.13680,
,,,0.050040000000,  -0.13680,
,,,0.050060000000,  -0.13680,
,,,0.050080000000,  -0.13680,
,,,0.050100000000,  -0.13680,
,,,0.050120000000,  -0.13720,
,,,0.050140000000,  -0.13720,
,,,0.050160000000,  -0.13720,
,,,0.050180000000,  -0.13720,
,,,0.050200000000,  -0.13720,
,,,0.050220000000,  -0.13720,
,,,0.050240000000,  -0.13760,
,,,0.050260000000,  -0.13720,
,,,0.050280000000,  -0.13720,
,,,0.050300000000,  -0.13760,
,,,0.050320000000,  -0.13760,
,,,0.050340000000,  -0.13760,
,,,0.050360000000,  -0.13760,
,,,0.050380000000,  -0.13720,
,,,0.050400000000,  -0.13760,
,,,0.050420000000,  -0.13760,
,,,0.050440000000,  -0.13800,
,,,0.050460000000,  -0.13760,
,,,0.050480000000,  -0.13760,
,,,0.050500000000,  -0.13760,
,,,0.050520000000,  -0.13800,
,,,0.050540000000,  -0.13800,
,,,0.050560000000,  -0.13800,
,,,0.050580000000,  -0.13800,
,,,0.050600000000,  -0.13760,
,,,0.050620000000,  -0.13800,
,,,0.050640000000,  -0.13840,
,,,0.050660000000,  -0.13800,
,,,0.050680000000,  -0.13800,
,,,0.050700000000,  -0.13800,
,,,0.050720000000,  -0.13800,
,,,0.050740000000,  -0.13800,
,,,0.050760000000,  -0.13800,
,,,0.050780000000,  -0.13800,
,,,0.050800000000,  -0.13800,
,,,0.050820000000,  -0.13800,
,,,0.050840000000,  -0.13840,
,,,0.050860000000,  -0.13840,
,,,0.050880000000,  -0.13840,
,,,0.050900000000,  -0.13840,
,,,0.050920000000,  -0.13840,
,,,0.050940000000,  -0.13840,
,,,0.050960000000,  -0.13840,
,,,0.050980000000,  -0.13840,
,,,0.051000000000,  -0.13840,
,,,0.051020000000,  -0.13840,
,,,0.051040000000,  -0.13880,
,,,0.051060000000,  -0.13880,
,,,0.051080000000,  -0.13880,
,,,0.051100000000,  -0.13840,
,,,0.051120000000,  -0.13840,
,,,0.051140000000,  -0.13840,
,,,0.051160000000,  -0.13880,
,,,0.051180000000,  -0.13880,
,,,0.051200000000,  -0.13840,
,,,0.051220000000,  -0.13880,
,,,0.051240000000,  -0.13840,
,,,0.051260000000,  -0.13880,
,,,0.051280000000,  -0.13880,
,,,0.051300000000,  -0.13880,
,,,0.051320000000,  -0.13880,
,,,0.051340000000,  -0.13880,
,,,0.051360000000,  -0.13920,
,,,0.051380000000,  -0.13880,
,,,0.051400000000,  -0.13880,
,,,0.051420000000,  -0.13880,
,,,0.051440000000,  -0.13880,
,,,0.051460000000,  -0.13920,
,,,0.051480000000,  -0.13920,
,,,0.051500000000,  -0.13880,
,,,0.051520000000,  -0.13880,
,,,0.051540000000,  -0.13880,
,,,0.051560000000,  -0.13920,
,,,0.051580000000,  -0.13920,
,,,0.051600000000,  -0.13920,
,,,0.051620000000,  -0.13880,
,,,0.051640000000,  -0.13920,
,,,0.051660000000,  -0.13920,
,,,0.051680000000,  -0.13960,
,,,0.051700000000,  -0.13920,
,,,0.051720000000,  -0.13920,
,,,0.051740000000,  -0.13920,
,,,0.051760000000,  -0.13920,
,,,0.051780000000,  -0.13960,
,,,0.051800000000,  -0.13960,
,,,0.051820000000,  -0.13960,
,,,0.051840000000,  -0.13920,
,,,0.051860000000,  -0.13960,
,,,0.051880000000,  -0.13920,
,,,0.051900000000,  -0.13920,
,,,0.051920000000,  -0.13960,
,,,0.051940000000,  -0.13960,
,,,0.051960000000,  -0.13920,
,,,0.051980000000,  -0.13960,
,,,0.052000000000,  -0.13960,
,,,0.052020000000,  -0.13960,
,,,0.052040000000,  -0.13960,
,,,0.052060000000,  -0.13960,
,,,0.052080000000,  -0.13960,
,,,0.052100000000,  -0.14000,
,,,0.052120000000,  -0.14000,
,,,0.052140000000,  -0.13960,
,,,0.052160000000,  -0.13960,
,,,0.052180000000,  -0.13960,
,,,0.052200000000,  -0.14000,
,,,0.052220000000,  -0.13960,
,,,0.052240000000,  -0.14000,
,,,0.052260000000,  -0.13960,
,,,0.052280000000,  -0.13960,
,,,0.052300000000,  -0.14000,
,,,0.052320000000,  -0.14000,
,,,0.052340000000,  -0.14000,
,,,0.052360000000,  -0.14000,
,,,0.052380000000,  -0.14000,
,,,0.052400000000,  -0.14000,
,,,0.052420000000,  -0.14000,
,,,0.052440000000,  -0.14000,
,,,0.052460000000,  -0.14000,
,,,0.052480000000,  -0.14000,
,,,0.052500000000,  -0.14000,
,,,0.052520000000,  -0.14000,
,,,0.052540000000,  -0.14000,
,,,0.052560000000,  -0.14000,
,,,0.052580000000,  -0.14000,
,,,0.052600000000,  -0.14000,
,,,0.052620000000,  -0.14000,
,,,0.052640000000,  -0.14040,
,,,0.052660000000,  -0.14040,
